<?xml version="1.0" encoding="UTF-8" standalone="no"?>
<!-- Created with Inkscape (http://www.inkscape.org/) -->

<svg
   xmlns:dc="http://purl.org/dc/elements/1.1/"
   xmlns:cc="http://creativecommons.org/ns#"
   xmlns:rdf="http://www.w3.org/1999/02/22-rdf-syntax-ns#"
   xmlns:svg="http://www.w3.org/2000/svg"
   xmlns="http://www.w3.org/2000/svg"
   xmlns:sodipodi="http://sodipodi.sourceforge.net/DTD/sodipodi-0.dtd"
   xmlns:inkscape="http://www.inkscape.org/namespaces/inkscape"
   width="90.731735mm"
   height="91.125084mm"
   viewBox="0 0 90.731735 91.125084"
   version="1.1"
   id="svg1984"
   inkscape:version="0.92.2 5c3e80d, 2017-08-06"
   sodipodi:docname="goa_vectorized.svg">
  <defs
     id="defs1978" />
  <sodipodi:namedview
     id="base"
     pagecolor="#ffffff"
     bordercolor="#666666"
     borderopacity="1.0"
     inkscape:pageopacity="0.0"
     inkscape:pageshadow="2"
     inkscape:zoom="0.35"
     inkscape:cx="532.56598"
     inkscape:cy="-44.261602"
     inkscape:document-units="mm"
     inkscape:current-layer="layer1"
     showgrid="false"
     fit-margin-top="0"
     fit-margin-left="0"
     fit-margin-right="0"
     fit-margin-bottom="0"
     inkscape:window-width="1299"
     inkscape:window-height="708"
     inkscape:window-x="67"
     inkscape:window-y="27"
     inkscape:window-maximized="1" />
  <metadata
     id="metadata1981">
    <rdf:RDF>
      <cc:Work
         rdf:about="">
        <dc:format>image/svg+xml</dc:format>
        <dc:type
           rdf:resource="http://purl.org/dc/dcmitype/StillImage" />
        <dc:title></dc:title>
      </cc:Work>
    </rdf:RDF>
  </metadata>
  <g
     inkscape:label="Layer 1"
     inkscape:groupmode="layer"
     id="layer1"
     transform="translate(170.7682,-45.997367)">
    <path
       style="fill:#000000;stroke-width:0.26458332"
       d="m -130.43959,136.90319 c -8.54572,-1.09999 -16.87681,-4.58649 -23.45985,-9.81779 -8.20691,-6.52173 -13.94677,-16.07878 -16.25658,-27.06769 -0.52736,-2.508876 -0.61182,-3.676996 -0.61218,-8.466666 -3.4e-4,-4.7457 0.0872,-5.98082 0.6,-8.46667 2.98713,-14.47968 12.09672,-26.32528 25.02428,-32.54016 10.74787,-5.16699 22.99558,-5.96193 34.23831,-2.22224 3.37,1.12097 9.17622,4.09233 12.216024,6.25162 3.19795,2.27163 8.07988,7.15622 10.3867,10.39239 2.14625,3.0109 5.18966,9.00351 6.25903,12.32432 1.73792,5.39691 2.00739,7.31126 2.00739,14.26074 0,6.94726 -0.26811,8.853446 -2.0058,14.260736 -1.0516,3.27232 -4.10266,9.27469 -6.26741,12.32988 -2.27559,3.21164 -7.1507,8.08994 -10.37991,10.38671 -4.723844,3.35982 -11.590504,6.39514 -17.273244,7.63542 -4.02832,0.87919 -10.73111,1.22154 -14.47676,0.7394 z m 9.79121,-2.7509 c 5.13113,-0.61086 8.26493,-1.47039 13.11305,-3.59661 2.24261,-0.98353 2.49256,-1.16143 2.33859,-1.6644 -0.24499,-0.80026 -4.55572,-11.84939 -4.6552,-11.93206 -0.0453,-0.0377 -7.16902,-0.14944 -15.83039,-0.24836 l -15.74795,-0.17985 -2.05072,6.03085 c -1.12789,3.31696 -2.04827,6.22194 -2.04528,6.45549 0.0112,0.8759 6.50317,3.44014 11.29892,4.46293 5.03302,1.07339 8.68804,1.25428 13.57898,0.67201 z m 25.550314,-12.4381 c 3.94173,-3.92009 6.1029,-6.94363 8.41849,-11.77777 1.67299,-3.4926 2.57564,-6.12634 3.39353,-9.90161 0.49329,-2.276946 0.5777,-3.506646 0.58236,-8.483766 0.005,-5.04143 -0.0731,-6.18034 -0.58139,-8.50576 -1.20678,-5.52124 -3.49392,-10.88914 -6.69573,-15.71478 -2.21489,-3.33819 -7.97448,-9.11817 -11.155814,-11.19531 -6.76837,-4.41916 -13.37664,-6.72222 -20.92137,-7.29134 -7.69456,-0.58042 -14.98296,0.78734 -21.74306,4.08036 -8.946,4.35782 -15.31515,10.60414 -19.82689,19.44454 -4.41621,8.6532 -5.67904,18.73284 -3.5678,28.477386 1.62811,7.51465 5.77655,15.14084 11.20209,20.59307 2.76984,2.78347 5.60347,5.09958 5.88932,4.81372 0.12883,-0.12882 10.66891,-26.866586 10.66891,-27.064556 0,-0.0269 -0.86321,-0.52419 -1.91823,-1.10513 -3.74156,-2.06025 -7.33463,-5.72135 -9.04684,-9.21813 -0.68655,-1.40213 -1.54285,-4.44996 -1.82854,-6.50834 l -0.13771,-0.99219 h 26.57399 26.573994 v 1.01601 c 0,2.40435 -1.572294,6.72273 -3.290724,9.03816 -1.46056,1.96797 -4.61434,4.86382 -6.82959,6.27104 -1.27331,0.80885 -2.31511,1.62488 -2.31511,1.81339 0,0.18851 0.70088,2.167326 1.55752,4.397386 3.45081,8.98341 8.56888,22.0745 8.80296,22.51637 0.22835,0.43106 0.35221,0.39819 1.492714,-0.39623 0.68403,-0.47646 2.80034,-2.4144 4.70292,-4.30652 z M -151.94989,80.668174 c -0.10204,-0.10204 -0.18553,-0.40381 -0.18553,-0.6706 0,-0.34452 0.19699,-0.48507 0.67986,-0.48507 0.55289,0 0.66407,0.11067 0.59531,0.59261 -0.0837,0.58654 -0.73144,0.92126 -1.08964,0.56306 z m 3.08515,-0.22963 c -0.2096,-0.54621 0.0746,-1.19062 0.52508,-1.19062 0.20503,0 0.521,0.17859 0.70215,0.39687 0.26279,0.31663 0.26279,0.47712 0,0.79375 -0.18115,0.21828 -0.49712,0.39688 -0.70215,0.39688 -0.20504,0 -0.44132,-0.1786 -0.52508,-0.39688 z m 3.18736,0.0322 c -0.21414,-0.55805 0.0864,-0.95826 0.71972,-0.95826 0.39972,0 0.51094,0.14732 0.44741,0.59261 -0.0987,0.69161 -0.9408,0.95545 -1.16713,0.36565 z m 3.34116,-0.0206 c -0.39665,-0.47793 -0.14193,-0.93763 0.51955,-0.93763 0.27386,0 0.57474,0.12428 0.66862,0.27617 0.17544,0.28387 -0.31186,1.04675 -0.66862,1.04675 -0.10989,0 -0.34368,-0.17338 -0.51955,-0.38529 z m 3.175,0 c -0.39665,-0.47793 -0.14193,-0.93763 0.51955,-0.93763 0.60887,0 0.84905,0.34176 0.63401,0.90216 -0.20165,0.5255 -0.73331,0.54185 -1.15356,0.0355 z m 3.09089,0.0546 c -0.16947,-0.47262 0.28972,-1.25677 0.73595,-1.25677 0.55486,0 0.97493,0.90361 0.59616,1.28239 -0.40427,0.40426 -1.18334,0.38929 -1.33211,-0.0256 z m 3.34517,-0.0661 c -0.2096,-0.54621 0.0746,-1.19063 0.52508,-1.19063 0.20503,0 0.521,0.1786 0.70216,0.39688 0.26278,0.31663 0.26278,0.47712 0,0.79375 -0.18116,0.21828 -0.49713,0.39687 -0.70216,0.39687 -0.20503,0 -0.44132,-0.17859 -0.52508,-0.39687 z m 3.175,0 c -0.2096,-0.54621 0.0746,-1.19063 0.52508,-1.19063 0.20503,0 0.521,0.1786 0.70216,0.39688 0.26278,0.31663 0.26278,0.47712 0,0.79375 -0.18116,0.21828 -0.49713,0.39687 -0.70216,0.39687 -0.20503,0 -0.44132,-0.17859 -0.52508,-0.39687 z m 3.16713,-0.0205 c -0.0881,-0.22956 0.0347,-0.61226 0.27289,-0.85044 0.40101,-0.40102 0.46562,-0.40049 0.87334,0.007 0.36372,0.36371 0.38109,0.51162 0.0999,0.85044 -0.43875,0.52867 -1.04182,0.52517 -1.24613,-0.007 z m 3.23807,-0.0265 c -0.0964,-0.2511 0.006,-0.62042 0.23627,-0.85044 0.36574,-0.36574 0.45012,-0.36308 0.83965,0.0265 0.23818,0.23818 0.36099,0.62088 0.27289,0.85044 -0.2122,0.55299 -1.13339,0.53492 -1.34881,-0.0265 z m 3.47424,0.27661 c -0.10204,-0.10205 -0.18554,-0.40382 -0.18554,-0.67061 0,-0.34452 0.19699,-0.48507 0.67986,-0.48507 0.5529,0 0.66408,0.11067 0.59532,0.59261 -0.0837,0.58654 -0.73144,0.92126 -1.08964,0.56306 z m 3.09265,-0.21008 c -0.24072,-0.62729 0.0999,-1.26083 0.62362,-1.15996 0.62917,0.12117 0.62917,1.3659 0,1.48707 -0.25511,0.0491 -0.53573,-0.0981 -0.62362,-0.32711 z m 3.25735,0.21008 c -0.10205,-0.10205 -0.18554,-0.40382 -0.18554,-0.67061 0,-0.34452 0.19699,-0.48507 0.67986,-0.48507 0.5529,0 0.66407,0.11067 0.59531,0.59261 -0.0837,0.58654 -0.73143,0.92126 -1.08963,0.56306 z m 3.26366,-0.21804 c -0.39665,-0.47794 -0.14192,-0.93764 0.51955,-0.93764 0.27386,0 0.57474,0.12428 0.66862,0.27617 0.17544,0.28387 -0.31186,1.04675 -0.66862,1.04675 -0.10988,0 -0.34368,-0.17338 -0.51955,-0.38529 z m 3.16538,-0.27618 c 0,-0.57279 0.10698,-0.68307 0.59532,-0.61372 0.39074,0.0555 0.59531,0.26639 0.59531,0.61372 0,0.34732 -0.20457,0.55822 -0.59531,0.61371 -0.48834,0.0694 -0.59532,-0.0409 -0.59532,-0.61371 z m 3.1734,0.26265 c -0.29276,-0.35276 -0.28135,-0.48996 0.07,-0.84128 0.5674,-0.5674 1.31549,-0.25216 1.20697,0.5086 -0.10337,0.72468 -0.8008,0.90638 -1.27693,0.33268 z m 3.36214,0.23156 c -0.10205,-0.10204 -0.18554,-0.40381 -0.18554,-0.6706 0,-0.34452 0.19699,-0.48507 0.679864,-0.48507 0.5529,0 0.66407,0.11067 0.59532,0.59261 -0.0837,0.58654 -0.73144,0.92126 -1.089644,0.56306 z m -35.36581,-2.46119 c -0.31702,-0.59237 -0.32759,-1.50876 -0.0261,-2.26636 0.18809,-0.4727 0.25285,-0.42903 0.60689,0.40923 0.21798,0.51612 0.77884,1.26026 1.24635,1.65365 l 0.85003,0.71525 h -1.20162 c -0.91721,0 -1.26644,-0.12113 -1.47551,-0.51177 z m 4.00087,0.27839 c -0.22635,-0.14346 -0.32244,-0.5934 -0.26458,-1.23896 0.086,-0.95945 0.0441,-1.0234 -0.78246,-1.19521 -1.17207,-0.24362 -1.21827,-0.32639 -0.72005,-1.28984 0.56325,-1.08921 0.34792,-1.66177 -1.07104,-2.84788 -1.11326,-0.93056 -1.4669,-1.71252 -0.92575,-2.04697 0.13547,-0.0837 0.32526,-0.0245 0.42177,0.13168 0.0965,0.15615 0.69271,0.60584 1.32489,0.99933 0.63219,0.39348 1.42941,1.13087 1.77159,1.63864 0.7191,1.06707 1.35616,1.19638 1.4829,0.30099 0.16644,-1.17586 -0.20169,-1.87104 -1.28293,-2.42264 -0.92409,-0.47144 -1.0541,-0.65131 -1.0541,-1.45843 0,-1.07808 0.13531,-1.13252 0.80868,-0.32535 0.491,0.58856 0.49673,0.55686 0.50543,-2.79374 0.006,-2.18986 0.10243,-3.33119 0.27339,-3.22553 0.14552,0.0899 0.26458,0.80075 0.26458,1.57959 0,1.25725 0.0915,1.4931 0.81616,2.10282 0.44888,0.37771 0.91676,0.62457 1.03972,0.54858 0.12297,-0.076 0.16041,-1.41625 0.0832,-2.97833 -0.0802,-1.62328 -0.0278,-3.12357 0.1224,-3.50162 l 0.26276,-0.66146 0.17407,0.79375 c 0.43867,2.00026 0.58967,2.38272 0.96962,2.4559 0.53826,0.10366 0.96173,-0.88236 1.32583,-3.08707 0.24413,-1.47829 0.22579,-2.04381 -0.10261,-3.16411 -0.21993,-0.75025 -0.30325,-1.36409 -0.18515,-1.36409 0.47339,0 2.7558,2.58087 3.22955,3.65187 0.33367,0.75429 0.60292,2.30901 0.79266,4.57683 0.15803,1.88897 0.36699,3.34035 0.46435,3.22529 0.0974,-0.11506 0.55934,-1.10217 1.02662,-2.19358 0.46728,-1.0914 1.09131,-2.28203 1.38674,-2.64583 l 0.53714,-0.66146 -0.17009,2.24896 c -0.18846,2.4919 -0.25825,2.64127 -2.36035,5.05158 -1.63863,1.87887 -1.8096,2.50727 -0.78788,2.89572 1.46067,0.55535 3.67426,-0.57575 4.57936,-2.33996 l 0.49226,-0.95952 0.55916,0.91724 c 0.59422,0.97474 0.71535,2.19697 0.32062,3.23518 -0.13228,0.34794 -1.08478,1.63054 -2.11666,2.85023 -1.03189,1.21969 -1.87615,2.31198 -1.87615,2.42732 0,0.43659 0.74355,0.17917 1.94042,-0.67177 1.54205,-1.09636 2.80524,-2.55754 3.69824,-4.2779 l 0.68669,-1.32291 0.0123,1.6017 c 0.0149,1.93365 -0.90762,4.01713 -2.22281,5.02028 -0.74973,0.57184 -1.12815,0.65406 -3.01031,0.65406 h -2.15277 l 0.16319,-1.19063 c 0.20939,-1.52768 -0.19825,-1.5542 -1.01683,-0.0661 -0.4694,0.85331 -0.80006,1.14533 -1.37119,1.21094 l -0.75263,0.0865 0.0676,-1.67397 c 0.13581,-3.36142 -0.11185,-3.95052 -0.8984,-2.13698 l -0.43032,0.99218 0.13761,-1.5875 c 0.0757,-0.87312 0.19924,-2.18281 0.27457,-2.91041 0.13317,-1.28626 -0.18317,-2.30649 -0.58925,-1.90041 -0.11051,0.11051 -0.24992,0.97027 -0.30979,1.91056 -0.0599,0.9403 -0.20421,1.70964 -0.32074,1.70964 -0.11654,0 -0.41962,-0.56555 -0.67351,-1.25677 -1.49117,-4.0596 -1.68354,-4.017 -2.09086,0.46302 -0.19082,2.09869 0.0962,2.73101 0.90669,1.99752 0.30082,-0.27223 0.63551,-0.40647 0.74376,-0.29831 0.10825,0.10817 0.2388,1.19884 0.29011,2.42373 l 0.0933,2.22706 -2.07767,-0.004 c -1.14272,-0.002 -2.23762,-0.10542 -2.43311,-0.22933 z m 20.21167,34.824396 c 0.13425,-0.34986 -4.18699,-11.75158 -4.6167,-12.18129 -0.15354,-0.15354 -0.9836,-0.0843 -2.18723,0.18239 -4.69958,1.04137 -9.76164,1.04468 -14.86039,0.01 -1.13997,-0.2314 -2.11073,-0.38108 -2.15725,-0.33263 -0.21313,0.22197 -4.63361,11.92661 -4.63361,12.26897 0,0.33457 1.91354,0.38683 14.16351,0.38683 11.16018,0 14.19069,-0.0708 14.29167,-0.33398 z m -23.30903,-14.169386 c -0.13825,-0.11869 -1.43192,-1.21747 -2.87483,-2.44173 -1.44291,-1.22427 -3.38822,-3.12146 -4.32291,-4.21598 -1.97065,-2.30763 -3.71518,-5.68868 -3.94755,-7.65068 l -0.15998,-1.35081 h -1.98236 -1.98236 l 0.14186,1.05762 c 0.18847,1.40521 1.51357,4.19049 2.95385,6.20887 2.22514,3.11825 6.08988,6.17921 9.86492,7.81325 1.74004,0.75318 2.83036,1.02676 2.30936,0.57946 z"
       id="path2540"
       inkscape:connector-curvature="0" />
  </g>
</svg>
